<?xml version="1.0" encoding="UTF-8" standalone="no"?>
            <gpx
            xmlns="http://www.topografix.com/GPX/1/1"
            xmlns:gpxx = "http://www.garmin.com/xmlschemas/GpxExtensions/v3"
            xmlns:xsi = "http://www.w3.org/2001/XMLSchema-instance"
            xsi:schemaLocation="http://www.topografix.com/GPX/1/1 http://www.topografix.com/GPX/1/1/gpx.xsd
            http://www.garmin.com/xmlschemas/GpxExtensions/v3
            http://www8.garmin.com/xmlschemas/GpxExtensions/v3/GpxExtensionsv3.xsd"
            version="1.1"
            creator="StefanLage">
                <wpt lat="52.39190067384212" lon="4.699375555843992">
                    <time>2015-02-06 11:57:31 +0000</time>
                    <name>Spaarndam</name>
                    <extensions>
                        <gpxx:WaypointExtension>
                            <gpxx:Address>
                                <gpxx:StreetAddress>A9</gpxx:StreetAddress>
                                <gpxx:City>Spaarndam</gpxx:City>
                                <gpxx:Country>Nederland</gpxx:Country>
                                <gpxx:PostalCode></gpxx:PostalCode>
                            </gpxx:Address>
                        </gpxx:WaypointExtension>
                    </extensions>
                </wpt>
            </gpx>